verilog xil_defaultlib  \
"../../../bd/design_3/ip/design_3_control_unit_0_1/sim/design_3_control_unit_0_1.v" \
"../../../bd/design_3/ip/design_3_multiplexer_32_0_0/sim/design_3_multiplexer_32_0_0.v" \
"../../../bd/design_3/ip/design_3_multiplexer_32_0_1/sim/design_3_multiplexer_32_0_1.v" \
"../../../bd/design_3/ip/design_3_multiplexer_32_0_2/sim/design_3_multiplexer_32_0_2.v" \
"../../../bd/design_3/ip/design_3_dist_mem_gen_0_0/sim/design_3_dist_mem_gen_0_0.v" \
"../../../bd/design_3/ip/design_3_dist_mem_gen_1_0/sim/design_3_dist_mem_gen_1_0.v" \
"../../../bd/design_3/ip/design_3_dist_mem_gen_1_1/sim/design_3_dist_mem_gen_1_1.v" \
"../../../bd/design_3/ip/design_3_sign_extend_16to32_0_0/sim/design_3_sign_extend_16to32_0_0.v" \
"../../../bd/design_3/ip/design_3_logical_shift_l2_32_0_0/sim/design_3_logical_shift_l2_32_0_0.v" \
"../../../bd/design_3/ip/design_3_comparer_0_0/sim/design_3_comparer_0_0.v" \
"../../../bd/design_3/ip/design_3_util_vector_logic_0_0/sim/design_3_util_vector_logic_0_0.v" \
"../../../bd/design_3/ip/design_3_util_vector_logic_0_1/sim/design_3_util_vector_logic_0_1.v" \
"../../../bd/design_3/ip/design_3_multiplexer_4p_32_0_0/sim/design_3_multiplexer_4p_32_0_0.v" \
"../../../bd/design_3/ip/design_3_multiplexer_4p_32_0_1/sim/design_3_multiplexer_4p_32_0_1.v" \
"../../../bd/design_3/ip/design_3_multiplexer_32_4_0/sim/design_3_multiplexer_32_4_0.v" \
"../../../bd/design_3/ip/design_3_alu_0_0/sim/design_3_alu_0_0.v" \
"../../../bd/design_3/ip/design_3_dist_mem_gen_0_1/sim/design_3_dist_mem_gen_0_1.v" \
"../../../bd/design_3/ip/design_3_multiplexer_32_5_1/sim/design_3_multiplexer_32_5_1.v" \
"../../../bd/design_3/ip/design_3_hazard_unit_0_0/sim/design_3_hazard_unit_0_0.v" \
"../../../bd/design_3/ip/design_3_util_vector_logic_2_0/sim/design_3_util_vector_logic_2_0.v" \
"../../../bd/design_3/ip/design_3_xlconcat_0_0/sim/design_3_xlconcat_0_0.v" \
"../../../bd/design_3/ip/design_3_xlconstant_0_0/sim/design_3_xlconstant_0_0.v" \
"../../../bd/design_3/ip/design_3_xlslice_0_1/sim/design_3_xlslice_0_1.v" \
"../../../bd/design_3/ip/design_3_multiplexer_4p_32_0_2/sim/design_3_multiplexer_4p_32_0_2.v" \
"../../../bd/design_3/ip/design_3_multiplexer_4p_32_0_3/sim/design_3_multiplexer_4p_32_0_3.v" \
"../../../bd/design_3/ip/design_3_multiplexer_32_2_0/sim/design_3_multiplexer_32_2_0.v" \
"../../../bd/design_3/ip/design_3_multiplexer_5_0_0/sim/design_3_multiplexer_5_0_0.v" \
"../../../bd/design_3/ip/design_3_util_vector_logic_3_0/sim/design_3_util_vector_logic_3_0.v" \
"../../../bd/design_3/ip/design_3_xlslice_1_0/sim/design_3_xlslice_1_0.v" \
"../../../bd/design_3/ip/design_3_xlslice_1_1/sim/design_3_xlslice_1_1.v" \
"../../../bd/design_3/ip/design_3_xlslice_1_2/sim/design_3_xlslice_1_2.v" \
"../../../bd/design_3/ip/design_3_xlslice_1_3/sim/design_3_xlslice_1_3.v" \
"../../../bd/design_3/ip/design_3_xlconstant_1_0/sim/design_3_xlconstant_1_0.v" \
"../../../bd/design_3/ip/design_3_util_vector_logic_3_1/sim/design_3_util_vector_logic_3_1.v" \
"../../../bd/design_3/ip/design_3_xlslice_5_0/sim/design_3_xlslice_5_0.v" \
"../../../bd/design_3/ip/design_3_xlslice_5_1/sim/design_3_xlslice_5_1.v" \
"../../../bd/design_3/ip/design_3_xlslice_5_2/sim/design_3_xlslice_5_2.v" \
"../../../bd/design_3/ip/design_3_multiplexer_5_1_0/sim/design_3_multiplexer_5_1_0.v" \
"../../../bd/design_3/ip/design_3_sim_clk_gen_0_0/sim/design_3_sim_clk_gen_0_0.v" \
"../../../bd/design_3/ip/design_3_multiplexer_32_4_1/sim/design_3_multiplexer_32_4_1.v" \
"../../../bd/design_3/ip/design_3_multiplexer_32_4_2/sim/design_3_multiplexer_32_4_2.v" \
"../../../bd/design_3/ip/design_3_equal_5bit_we_1_0/sim/design_3_equal_5bit_we_1_0.v" \
"../../../bd/design_3/ip/design_3_equal_5bit_we_1_1/sim/design_3_equal_5bit_we_1_1.v" \
"../../../bd/design_3/sim/design_3.v" \

verilog xil_defaultlib "glbl.v"

nosort
