
*** Running vivado
    with args -log design_3_c_shift_ram_3_2.vds -m64 -product Vivado -mode batch -messageDb vivado.pb -notrace -source design_3_c_shift_ram_3_2.tcl


****** Vivado v2020.1 (64-bit)
  **** SW Build 2902540 on Wed May 27 19:54:35 MDT 2020
  **** IP Build 2902112 on Wed May 27 22:43:36 MDT 2020
    ** Copyright 1986-2020 Xilinx, Inc. All Rights Reserved.

source design_3_c_shift_ram_3_2.tcl -notrace
INFO: [IP_Flow 19-4838] Using cached IP synthesis design for IP design_3_c_shift_ram_3_2, cache-ID = acc618cc620bfb48.
INFO: [Common 17-206] Exiting Vivado at Thu Sep 24 22:01:23 2020...
