# compile verilog/system verilog design source files
verilog xil_defaultlib  --include "../../../../toy_mips_processor.srcs/sources_1/bd/design_1/ipshared/8b3d" \
"../../../../../src/control_unit.v" \

# compile glbl module
verilog xil_defaultlib "glbl.v"

# Do not sort compile order
nosort
