00100000000010000000000000001010
00001100000000000000000000000100
00001000000000000000000000011001
00100011101111011111111111111000
10101111101001000000000000000100
10101111101111110000000000000000
00100000000010000000000000000001
00000001000001000000100000101010
00010100001000000000000000001001
00000000100000000001000000010100
00001000000000000000000000010101
00100000100001001111111111111111
00001100000000000000000000000011
00100011101111011111111111111100
10101111101000100000000000000000
00100000100001001111111111111111
00001100000000000000000000000011
01011111101100000000000000000000
00100011101111010000000000000100
00000000010100000001000000010100
00001000000000000000000000010101
01011111101111110000000000000000
01011111101001000000000000000100
00100011101111010000000000001000
00000011111000000000000000001000
00000000000000000000000000000000
