memory_initialization_radix=2;
memory_initialization_vector=
00100011101111010001000000000000
00000000000000000000000000000000
00000000000000000000000000000000
00000000000000000000000000000000
00100000000001000000000000001111
00000000000000000000000000000000
00000000000000000000000000000000
00000000000000000000000000000000
00001100000000000000000000000100
00000000000000000000000000000000
00000000000000000000000000000000
00000000000000000000000000000000
00001000000000000000000000011010
00000000000000000000000000000000
00000000000000000000000000000000
00000000000000000000000000000000
00100011101111011111111111111000
00000000000000000000000000000000
00000000000000000000000000000000
00000000000000000000000000000000
10101111101001000000000000000100
00000000000000000000000000000000
00000000000000000000000000000000
00000000000000000000000000000000
10101111101111110000000000000000
00000000000000000000000000000000
00000000000000000000000000000000
00000000000000000000000000000000
00100000000010000000000000000001
00000000000000000000000000000000
00000000000000000000000000000000
00000000000000000000000000000000
00000001000001000000100000101010
00000000000000000000000000000000
00000000000000000000000000000000
00000000000000000000000000000000
00010100001000000000000000000010
00000000000000000000000000000000
00000000000000000000000000000000
00000000000000000000000000000000
00000000100000000001000000100000
00000000000000000000000000000000
00000000000000000000000000000000
00000000000000000000000000000000
00001000000000000000000000010110
00000000000000000000000000000000
00000000000000000000000000000000
00000000000000000000000000000000
00100000100001001111111111111111
00000000000000000000000000000000
00000000000000000000000000000000
00000000000000000000000000000000
00001100000000000000000000000100
00000000000000000000000000000000
00000000000000000000000000000000
00000000000000000000000000000000
00100011101111011111111111111100
00000000000000000000000000000000
00000000000000000000000000000000
00000000000000000000000000000000
10101111101000100000000000000000
00000000000000000000000000000000
00000000000000000000000000000000
00000000000000000000000000000000
00100000100001001111111111111111
00000000000000000000000000000000
00000000000000000000000000000000
00000000000000000000000000000000
00001100000000000000000000000100
00000000000000000000000000000000
00000000000000000000000000000000
00000000000000000000000000000000
10001111101100000000000000000000
00000000000000000000000000000000
00000000000000000000000000000000
00000000000000000000000000000000
00100011101111010000000000000100
00000000000000000000000000000000
00000000000000000000000000000000
00000000000000000000000000000000
00000000010100000001000000100000
00000000000000000000000000000000
00000000000000000000000000000000
00000000000000000000000000000000
00001000000000000000000000010110
00000000000000000000000000000000
00000000000000000000000000000000
00000000000000000000000000000000
10001111101111110000000000000000
00000000000000000000000000000000
00000000000000000000000000000000
00000000000000000000000000000000
10001111101001000000000000000100
00000000000000000000000000000000
00000000000000000000000000000000
00000000000000000000000000000000
00100011101111010000000000001000
00000000000000000000000000000000
00000000000000000000000000000000
00000000000000000000000000000000
00000011111000001111100000001000
00000000000000000000000000000000
00000000000000000000000000000000
00000000000000000000000000000000
00100000010000100000000000000000
00000000000000000000000000000000
00000000000000000000000000000000
00000000000000000000000000000000
00000000000000000000000000000000
