
*** Running vivado
    with args -log design_4_multiplexer_32_4_1.vds -m64 -product Vivado -mode batch -messageDb vivado.pb -notrace -source design_4_multiplexer_32_4_1.tcl


****** Vivado v2020.1 (64-bit)
  **** SW Build 2902540 on Wed May 27 19:54:35 MDT 2020
  **** IP Build 2902112 on Wed May 27 22:43:36 MDT 2020
    ** Copyright 1986-2020 Xilinx, Inc. All Rights Reserved.

source design_4_multiplexer_32_4_1.tcl -notrace
Command: synth_design -top design_4_multiplexer_32_4_1 -part xc7a35ticsg324-1L -mode out_of_context
Starting synth_design
WARNING: [IP_Flow 19-3571] IP 'design_4_multiplexer_32_4_1' is restricted:
* Module reference is stale and needs refreshing.
Attempting to get a license for feature 'Synthesis' and/or device 'xc7a35ti'
INFO: [Common 17-349] Got license for feature 'Synthesis' and/or device 'xc7a35ti'
INFO: [Synth 8-7079] Multithreading enabled for synth_design using a maximum of 4 processes.
INFO: [Synth 8-7078] Launching helper process for spawning children vivado processes
INFO: [Synth 8-7075] Helper process launched with PID 35509
---------------------------------------------------------------------------------
Starting Synthesize : Time (s): cpu = 00:00:06 ; elapsed = 00:00:09 . Memory (MB): peak = 2081.699 ; gain = 0.000 ; free physical = 7504 ; free virtual = 25250
---------------------------------------------------------------------------------
INFO: [Synth 8-6157] synthesizing module 'design_4_multiplexer_32_4_1' [/home/tatsu/Documents/toy_mips_processor/project/toy_mips_processor.srcs/sources_1/bd/design_4/ip/design_4_multiplexer_32_4_1/synth/design_4_multiplexer_32_4_1.v:58]
INFO: [Synth 8-6157] synthesizing module 'multiplexer_32' [/home/tatsu/Documents/toy_mips_processor/project/toy_mips_processor.srcs/sources_1/new/multiplexer_32.v:23]
INFO: [Synth 8-6155] done synthesizing module 'multiplexer_32' (1#1) [/home/tatsu/Documents/toy_mips_processor/project/toy_mips_processor.srcs/sources_1/new/multiplexer_32.v:23]
INFO: [Synth 8-6155] done synthesizing module 'design_4_multiplexer_32_4_1' (2#1) [/home/tatsu/Documents/toy_mips_processor/project/toy_mips_processor.srcs/sources_1/bd/design_4/ip/design_4_multiplexer_32_4_1/synth/design_4_multiplexer_32_4_1.v:58]
---------------------------------------------------------------------------------
Finished Synthesize : Time (s): cpu = 00:00:07 ; elapsed = 00:00:12 . Memory (MB): peak = 2081.699 ; gain = 0.000 ; free physical = 8328 ; free virtual = 26076
---------------------------------------------------------------------------------
---------------------------------------------------------------------------------
Finished Constraint Validation : Time (s): cpu = 00:00:08 ; elapsed = 00:00:12 . Memory (MB): peak = 2081.699 ; gain = 0.000 ; free physical = 7392 ; free virtual = 25147
---------------------------------------------------------------------------------
---------------------------------------------------------------------------------
Start Loading Part and Timing Information
---------------------------------------------------------------------------------
Loading part: xc7a35ticsg324-1L
INFO: [Device 21-403] Loading part xc7a35ticsg324-1L
---------------------------------------------------------------------------------
Finished Loading Part and Timing Information : Time (s): cpu = 00:00:08 ; elapsed = 00:00:12 . Memory (MB): peak = 2089.605 ; gain = 7.906 ; free physical = 7272 ; free virtual = 25026
---------------------------------------------------------------------------------
---------------------------------------------------------------------------------
Finished RTL Optimization Phase 2 : Time (s): cpu = 00:00:08 ; elapsed = 00:00:12 . Memory (MB): peak = 2089.605 ; gain = 7.906 ; free physical = 7145 ; free virtual = 24900
---------------------------------------------------------------------------------
No constraint files found.
---------------------------------------------------------------------------------
Start RTL Component Statistics 
---------------------------------------------------------------------------------
Detailed RTL Component Info : 
+---Muxes : 
	   2 Input   32 Bit        Muxes := 1     
---------------------------------------------------------------------------------
Finished RTL Component Statistics 
---------------------------------------------------------------------------------
---------------------------------------------------------------------------------
Start Part Resource Summary
---------------------------------------------------------------------------------
Part Resources:
DSPs: 90 (col length:60)
BRAMs: 100 (col length: RAMB18 60 RAMB36 30)
---------------------------------------------------------------------------------
Finished Part Resource Summary
---------------------------------------------------------------------------------
No constraint files found.
---------------------------------------------------------------------------------
Start Cross Boundary and Area Optimization
---------------------------------------------------------------------------------
---------------------------------------------------------------------------------
Finished Cross Boundary and Area Optimization : Time (s): cpu = 00:00:15 ; elapsed = 00:00:21 . Memory (MB): peak = 2089.605 ; gain = 7.906 ; free physical = 7097 ; free virtual = 24860
---------------------------------------------------------------------------------
No constraint files found.
---------------------------------------------------------------------------------
Start Timing Optimization
---------------------------------------------------------------------------------
---------------------------------------------------------------------------------
Finished Timing Optimization : Time (s): cpu = 00:00:15 ; elapsed = 00:00:22 . Memory (MB): peak = 2089.605 ; gain = 7.906 ; free physical = 7086 ; free virtual = 24849
---------------------------------------------------------------------------------
---------------------------------------------------------------------------------
Start Technology Mapping
---------------------------------------------------------------------------------
---------------------------------------------------------------------------------
Finished Technology Mapping : Time (s): cpu = 00:00:15 ; elapsed = 00:00:22 . Memory (MB): peak = 2089.605 ; gain = 7.906 ; free physical = 7073 ; free virtual = 24835
---------------------------------------------------------------------------------
---------------------------------------------------------------------------------
Start IO Insertion
---------------------------------------------------------------------------------
---------------------------------------------------------------------------------
Start Flattening Before IO Insertion
---------------------------------------------------------------------------------
---------------------------------------------------------------------------------
Finished Flattening Before IO Insertion
---------------------------------------------------------------------------------
---------------------------------------------------------------------------------
Start Final Netlist Cleanup
---------------------------------------------------------------------------------
---------------------------------------------------------------------------------
Finished Final Netlist Cleanup
---------------------------------------------------------------------------------
---------------------------------------------------------------------------------
Finished IO Insertion : Time (s): cpu = 00:00:20 ; elapsed = 00:00:27 . Memory (MB): peak = 2089.605 ; gain = 7.906 ; free physical = 7172 ; free virtual = 24935
---------------------------------------------------------------------------------
---------------------------------------------------------------------------------
Start Renaming Generated Instances
---------------------------------------------------------------------------------
---------------------------------------------------------------------------------
Finished Renaming Generated Instances : Time (s): cpu = 00:00:20 ; elapsed = 00:00:27 . Memory (MB): peak = 2089.605 ; gain = 7.906 ; free physical = 7172 ; free virtual = 24935
---------------------------------------------------------------------------------
---------------------------------------------------------------------------------
Start Rebuilding User Hierarchy
---------------------------------------------------------------------------------
---------------------------------------------------------------------------------
Finished Rebuilding User Hierarchy : Time (s): cpu = 00:00:20 ; elapsed = 00:00:27 . Memory (MB): peak = 2089.605 ; gain = 7.906 ; free physical = 7171 ; free virtual = 24934
---------------------------------------------------------------------------------
---------------------------------------------------------------------------------
Start Renaming Generated Ports
---------------------------------------------------------------------------------
---------------------------------------------------------------------------------
Finished Renaming Generated Ports : Time (s): cpu = 00:00:20 ; elapsed = 00:00:27 . Memory (MB): peak = 2089.605 ; gain = 7.906 ; free physical = 7170 ; free virtual = 24933
---------------------------------------------------------------------------------
---------------------------------------------------------------------------------
Start Handling Custom Attributes
---------------------------------------------------------------------------------
---------------------------------------------------------------------------------
Finished Handling Custom Attributes : Time (s): cpu = 00:00:20 ; elapsed = 00:00:27 . Memory (MB): peak = 2089.605 ; gain = 7.906 ; free physical = 7170 ; free virtual = 24933
---------------------------------------------------------------------------------
---------------------------------------------------------------------------------
Start Renaming Generated Nets
---------------------------------------------------------------------------------
---------------------------------------------------------------------------------
Finished Renaming Generated Nets : Time (s): cpu = 00:00:20 ; elapsed = 00:00:27 . Memory (MB): peak = 2089.605 ; gain = 7.906 ; free physical = 7170 ; free virtual = 24933
---------------------------------------------------------------------------------
---------------------------------------------------------------------------------
Start Writing Synthesis Report
---------------------------------------------------------------------------------

Report BlackBoxes: 
+-+--------------+----------+
| |BlackBox name |Instances |
+-+--------------+----------+
+-+--------------+----------+

Report Cell Usage: 
+------+-----+------+
|      |Cell |Count |
+------+-----+------+
|1     |LUT3 |    32|
+------+-----+------+

Report Instance Areas: 
+------+---------+---------------+------+
|      |Instance |Module         |Cells |
+------+---------+---------------+------+
|1     |top      |               |    32|
|2     |  inst   |multiplexer_32 |    32|
+------+---------+---------------+------+
---------------------------------------------------------------------------------
Finished Writing Synthesis Report : Time (s): cpu = 00:00:20 ; elapsed = 00:00:27 . Memory (MB): peak = 2089.605 ; gain = 7.906 ; free physical = 7170 ; free virtual = 24933
---------------------------------------------------------------------------------
Synthesis finished with 0 errors, 0 critical warnings and 0 warnings.
Synthesis Optimization Runtime : Time (s): cpu = 00:00:20 ; elapsed = 00:00:27 . Memory (MB): peak = 2089.605 ; gain = 7.906 ; free physical = 7169 ; free virtual = 24931
Synthesis Optimization Complete : Time (s): cpu = 00:00:20 ; elapsed = 00:00:27 . Memory (MB): peak = 2089.613 ; gain = 7.906 ; free physical = 7168 ; free virtual = 24931
INFO: [Project 1-571] Translating synthesized netlist
Netlist sorting complete. Time (s): cpu = 00:00:00 ; elapsed = 00:00:00 . Memory (MB): peak = 2089.613 ; gain = 0.000 ; free physical = 7288 ; free virtual = 25050
INFO: [Project 1-570] Preparing netlist for logic optimization
INFO: [Opt 31-138] Pushed 0 inverter(s) to 0 load pin(s).
Netlist sorting complete. Time (s): cpu = 00:00:00 ; elapsed = 00:00:00 . Memory (MB): peak = 2145.633 ; gain = 0.000 ; free physical = 7289 ; free virtual = 25051
INFO: [Project 1-111] Unisim Transformation Summary:
No Unisim elements were transformed.

INFO: [Common 17-83] Releasing license: Synthesis
14 Infos, 1 Warnings, 0 Critical Warnings and 0 Errors encountered.
synth_design completed successfully
synth_design: Time (s): cpu = 00:00:29 ; elapsed = 00:00:29 . Memory (MB): peak = 2145.633 ; gain = 64.031 ; free physical = 7418 ; free virtual = 25180
INFO: [Timing 38-35] Done setting XDC timing constraints.
INFO: [Common 17-1381] The checkpoint '/home/tatsu/Documents/toy_mips_processor/project/toy_mips_processor.runs/design_4_multiplexer_32_4_1_synth_1/design_4_multiplexer_32_4_1.dcp' has been generated.
write_checkpoint: Time (s): cpu = 00:00:09 ; elapsed = 00:00:11 . Memory (MB): peak = 2475.633 ; gain = 330.000 ; free physical = 5978 ; free virtual = 23733
WARNING: [Common 17-576] 'use_project_ipc' is deprecated. This option is deprecated and no longer used.
WARNING: [Constraints 18-5210] No constraints selected for write.
Resolution: This message can indicate that there are no constraints for the design, or it can indicate that the used_in flags are set such that the constraints are ignored. This later case is used when running synth_design to not write synthesis constraints to the resulting checkpoint. Instead, project constraints are read when the synthesized design is opened.
INFO: [Common 17-1381] The checkpoint '/home/tatsu/Documents/toy_mips_processor/project/toy_mips_processor.runs/design_4_multiplexer_32_4_1_synth_1/design_4_multiplexer_32_4_1.dcp' has been generated.
INFO: [runtcl-4] Executing : report_utilization -file design_4_multiplexer_32_4_1_utilization_synth.rpt -pb design_4_multiplexer_32_4_1_utilization_synth.pb
INFO: [Common 17-206] Exiting Vivado at Thu Sep 24 22:31:56 2020...
