verilog xil_defaultlib  \
"../../../bd/design_1/ip/design_1_dist_mem_gen_0_1/sim/design_1_dist_mem_gen_0_1.v" \
"../../../bd/design_1/ip/design_1_xlslice_0_0/sim/design_1_xlslice_0_0.v" \
"../../../bd/design_1/ip/design_1_dist_mem_gen_1_0/sim/design_1_dist_mem_gen_1_0.v" \
"../../../bd/design_1/ip/design_1_alu_0_0/sim/design_1_alu_0_0.v" \
"../../../bd/design_1/ip/design_1_control_unit_0_1/sim/design_1_control_unit_0_1.v" \
"../../../bd/design_1/ip/design_1_xlslice_1_0/sim/design_1_xlslice_1_0.v" \
"../../../bd/design_1/ip/design_1_xlslice_2_0/sim/design_1_xlslice_2_0.v" \
"../../../bd/design_1/ip/design_1_xlslice_3_0/sim/design_1_xlslice_3_0.v" \
"../../../bd/design_1/ip/design_1_multiplexer_32_0_0/sim/design_1_multiplexer_32_0_0.v" \
"../../../bd/design_1/ip/design_1_multiplexer_32_1_0/sim/design_1_multiplexer_32_1_0.v" \
"../../../bd/design_1/ip/design_1_multiplexer_32_2_0/sim/design_1_multiplexer_32_2_0.v" \
"../../../bd/design_1/ip/design_1_multiplexer_32_3_0/sim/design_1_multiplexer_32_3_0.v" \
"../../../bd/design_1/ip/design_1_xlslice_4_0/sim/design_1_xlslice_4_0.v" \
"../../../bd/design_1/ip/design_1_xlslice_4_1/sim/design_1_xlslice_4_1.v" \
"../../../bd/design_1/ip/design_1_multiplexer_5_0_0/sim/design_1_multiplexer_5_0_0.v" \
"../../../bd/design_1/ip/design_1_multiplexer_5_1_2/sim/design_1_multiplexer_5_1_2.v" \
"../../../bd/design_1/ip/design_1_xlconstant_1_0/sim/design_1_xlconstant_1_0.v" \
"../../../bd/design_1/ip/design_1_multiplexer_32_4_1/sim/design_1_multiplexer_32_4_1.v" \
"../../../bd/design_1/ip/design_1_xlslice_6_0/sim/design_1_xlslice_6_0.v" \
"../../../bd/design_1/ip/design_1_xlslice_6_1/sim/design_1_xlslice_6_1.v" \
"../../../bd/design_1/ip/design_1_logical_shift_l2_26t_0_0/sim/design_1_logical_shift_l2_26t_0_0.v" \
"../../../bd/design_1/ip/design_1_xlconcat_0_0/sim/design_1_xlconcat_0_0.v" \
"../../../bd/design_1/ip/design_1_xlslice_8_0/sim/design_1_xlslice_8_0.v" \
"../../../bd/design_1/ip/design_1_sign_extend_16to32_0_0/sim/design_1_sign_extend_16to32_0_0.v" \
"../../../bd/design_1/ip/design_1_multiplexer_32_5_1/sim/design_1_multiplexer_32_5_1.v" \
"../../../bd/design_1/ip/design_1_logical_shift_l2_32_0_0/sim/design_1_logical_shift_l2_32_0_0.v" \
"../../../bd/design_1/ip/design_1_util_vector_logic_0_0/sim/design_1_util_vector_logic_0_0.v" \
"../../../bd/design_1/ip/design_1_sim_clk_gen_0_0/sim/design_1_sim_clk_gen_0_0.v" \
"../../../bd/design_1/ip/design_1_dist_mem_gen_2_0/sim/design_1_dist_mem_gen_2_0.v" \
"../../../bd/design_1/ip/design_1_dist_mem_gen_3_0/sim/design_1_dist_mem_gen_3_0.v" \
"../../../bd/design_1/ip/design_1_xlslice_9_0/sim/design_1_xlslice_9_0.v" \
"../../../bd/design_1/ip/design_1_util_vector_logic_1_0/sim/design_1_util_vector_logic_1_0.v" \
"../../../bd/design_1/sim/design_1.v" \

verilog xil_defaultlib "glbl.v"

nosort
